-------------------------------------------------------------------------------
Test set: pizzas.TestPizzas
-------------------------------------------------------------------------------
Tests run: 1, Failures: 0, Errors: 0, Skipped: 0, Time elapsed: 0.02 s - in pizzas.TestPizzas
